<?xml version="1.0" encoding="UTF-8" standalone="no"?>
<!-- Created with Inkscape (http://www.inkscape.org/) --><svg height="128" id="svg2606" version="1.0" width="128" xmlns="http://www.w3.org/2000/svg" xmlns:inkscape="http://www.inkscape.org/namespaces/inkscape" xmlns:svg="http://www.w3.org/2000/svg" xmlns:xlink="http://www.w3.org/1999/xlink">
  <metadata>
    <rdf:RDF xmlns:cc="http://web.resource.org/cc/" xmlns:dc="http://purl.org/dc/elements/1.1/" xmlns:rdf="http://www.w3.org/1999/02/22-rdf-syntax-ns#">
      <cc:Work rdf:about="">
        <dc:title></dc:title>
        <dc:description></dc:description>
        <dc:subject>
          <rdf:Bag>
            <rdf:li></rdf:li>
          </rdf:Bag>
        </dc:subject>
        <dc:publisher>
          <cc:Agent rdf:about="http://www.oxygen-icons.org/">
            <dc:title>Source: Oxygen Icons, Source: Oxygen Icons, Source: Oxygen Icons, Source: Oxygen Icons</dc:title>
          </cc:Agent>
        </dc:publisher>
        <dc:creator>
          <cc:Agent>
            <dc:title></dc:title>
          </cc:Agent>
        </dc:creator>
        <dc:rights>
          <cc:Agent>
            <dc:title></dc:title>
          </cc:Agent>
        </dc:rights>
        <dc:date></dc:date>
        <dc:format>image/svg+xml</dc:format>
        <dc:type rdf:resource="http://purl.org/dc/dcmitype/StillImage"/>
        <cc:license rdf:resource="http://creativecommons.org/licenses/by-sa/3.0/ or http://creativecommons.org/licenses/LGPL/2.1/"/>
        <dc:language>en</dc:language>
      </cc:Work>
    </rdf:RDF>
  </metadata>
  <defs id="defs2608">
    <linearGradient gradientTransform="translate(-143,-64)" gradientUnits="userSpaceOnUse" id="XMLID_68_" x1="154.1006" x2="151.9005" y1="79.100601" y2="76.900497">
      <stop id="stop291" offset="0" style="stop-color:#bbbbbb;stop-opacity:1"/>
      <stop id="stop293" offset="1" style="stop-color:#616161;stop-opacity:1"/>
    </linearGradient>
    <linearGradient gradientTransform="translate(-143,-64)" gradientUnits="userSpaceOnUse" id="linearGradient10028" x1="154.1006" x2="151.9005" xlink:href="#XMLID_68_" y1="79.100601" y2="76.900497"/>
    <linearGradient gradientTransform="translate(-143,-64)" gradientUnits="userSpaceOnUse" id="XMLID_67_" x1="153" x2="153" y1="79.556602" y2="76.444199">
      <stop id="stop284" offset="0" style="stop-color:#ffffff;stop-opacity:1"/>
      <stop id="stop286" offset="1" style="stop-color:#dddddd;stop-opacity:1"/>
    </linearGradient>
    <linearGradient gradientTransform="translate(-143,-64)" gradientUnits="userSpaceOnUse" id="linearGradient10026" x1="153" x2="153" xlink:href="#XMLID_67_" y1="79.556602" y2="76.444199"/>
    <linearGradient gradientTransform="translate(-143,-64)" gradientUnits="userSpaceOnUse" id="XMLID_66_" x1="154.1006" x2="151.9005" y1="87.100601" y2="84.900497">
      <stop id="stop275" offset="0" style="stop-color:#bbbbbb;stop-opacity:1"/>
      <stop id="stop277" offset="1" style="stop-color:#616161;stop-opacity:1"/>
    </linearGradient>
    <linearGradient gradientTransform="translate(-143,-64)" gradientUnits="userSpaceOnUse" id="linearGradient10024" x1="154.1006" x2="151.9005" xlink:href="#XMLID_66_" y1="87.100601" y2="84.900497"/>
    <linearGradient gradientTransform="translate(-143,-64)" gradientUnits="userSpaceOnUse" id="XMLID_65_" x1="153" x2="153" y1="87.556602" y2="84.444199">
      <stop id="stop268" offset="0" style="stop-color:#ffffff;stop-opacity:1"/>
      <stop id="stop270" offset="1" style="stop-color:#dddddd;stop-opacity:1"/>
    </linearGradient>
    <linearGradient gradientTransform="translate(-143,-64)" gradientUnits="userSpaceOnUse" id="linearGradient10022" x1="153" x2="153" xlink:href="#XMLID_65_" y1="87.556602" y2="84.444199"/>
    <linearGradient gradientTransform="translate(-143,-64)" gradientUnits="userSpaceOnUse" id="XMLID_64_" x1="154.1006" x2="151.9005" y1="95.100601" y2="92.900497">
      <stop id="stop259" offset="0" style="stop-color:#bbbbbb;stop-opacity:1"/>
      <stop id="stop261" offset="1" style="stop-color:#616161;stop-opacity:1"/>
    </linearGradient>
    <linearGradient gradientTransform="translate(-143,-64)" gradientUnits="userSpaceOnUse" id="linearGradient10020" x1="154.1006" x2="151.9005" xlink:href="#XMLID_64_" y1="95.100601" y2="92.900497"/>
    <linearGradient gradientTransform="translate(-143,-64)" gradientUnits="userSpaceOnUse" id="XMLID_63_" x1="153" x2="153" y1="95.556602" y2="92.444199">
      <stop id="stop252" offset="0" style="stop-color:#ffffff;stop-opacity:1"/>
      <stop id="stop254" offset="1" style="stop-color:#dddddd;stop-opacity:1"/>
    </linearGradient>
    <linearGradient gradientTransform="translate(-143,-64)" gradientUnits="userSpaceOnUse" id="linearGradient10018" x1="153" x2="153" xlink:href="#XMLID_63_" y1="95.556602" y2="92.444199"/>
    <linearGradient gradientTransform="translate(-143,-64)" gradientUnits="userSpaceOnUse" id="XMLID_62_" x1="154.1006" x2="151.9005" y1="103.1006" y2="100.9005">
      <stop id="stop243" offset="0" style="stop-color:#bbbbbb;stop-opacity:1"/>
      <stop id="stop245" offset="1" style="stop-color:#616161;stop-opacity:1"/>
    </linearGradient>
    <linearGradient gradientTransform="translate(-143,-64)" gradientUnits="userSpaceOnUse" id="linearGradient10016" x1="154.1006" x2="151.9005" xlink:href="#XMLID_62_" y1="103.1006" y2="100.9005"/>
    <linearGradient gradientTransform="translate(-143,-64)" gradientUnits="userSpaceOnUse" id="XMLID_61_" x1="153" x2="153" y1="103.5566" y2="100.4442">
      <stop id="stop236" offset="0" style="stop-color:#ffffff;stop-opacity:1"/>
      <stop id="stop238" offset="1" style="stop-color:#dddddd;stop-opacity:1"/>
    </linearGradient>
    <linearGradient gradientTransform="translate(-143,-64)" gradientUnits="userSpaceOnUse" id="linearGradient10014" x1="153" x2="153" xlink:href="#XMLID_61_" y1="103.5566" y2="100.4442"/>
    <linearGradient gradientTransform="translate(-143,-64)" gradientUnits="userSpaceOnUse" id="XMLID_60_" x1="154.1006" x2="151.9005" y1="111.1006" y2="108.9005">
      <stop id="stop227" offset="0" style="stop-color:#bbbbbb;stop-opacity:1"/>
      <stop id="stop229" offset="1" style="stop-color:#616161;stop-opacity:1"/>
    </linearGradient>
    <linearGradient gradientTransform="translate(-143,-64)" gradientUnits="userSpaceOnUse" id="linearGradient10012" x1="154.1006" x2="151.9005" xlink:href="#XMLID_60_" y1="111.1006" y2="108.9005"/>
    <linearGradient gradientTransform="translate(-143,-64)" gradientUnits="userSpaceOnUse" id="XMLID_59_" x1="153" x2="153" y1="111.5566" y2="108.4442">
      <stop id="stop220" offset="0" style="stop-color:#ffffff;stop-opacity:1"/>
      <stop id="stop222" offset="1" style="stop-color:#dddddd;stop-opacity:1"/>
    </linearGradient>
    <linearGradient gradientTransform="translate(-143,-64)" gradientUnits="userSpaceOnUse" id="linearGradient10010" x1="153" x2="153" xlink:href="#XMLID_59_" y1="111.5566" y2="108.4442"/>
    <linearGradient gradientTransform="translate(-143,-64)" gradientUnits="userSpaceOnUse" id="XMLID_58_" x1="154.1006" x2="151.9005" y1="119.1006" y2="116.9005">
      <stop id="stop211" offset="0" style="stop-color:#bbbbbb;stop-opacity:1"/>
      <stop id="stop213" offset="1" style="stop-color:#616161;stop-opacity:1"/>
    </linearGradient>
    <linearGradient gradientTransform="translate(-143,-64)" gradientUnits="userSpaceOnUse" id="linearGradient10008" x1="154.1006" x2="151.9005" xlink:href="#XMLID_58_" y1="119.1006" y2="116.9005"/>
    <linearGradient gradientTransform="translate(-143,-64)" gradientUnits="userSpaceOnUse" id="XMLID_57_" x1="153" x2="153" y1="119.5566" y2="116.4442">
      <stop id="stop204" offset="0" style="stop-color:#ffffff;stop-opacity:1"/>
      <stop id="stop206" offset="1" style="stop-color:#dddddd;stop-opacity:1"/>
    </linearGradient>
    <linearGradient gradientTransform="translate(-143,-64)" gradientUnits="userSpaceOnUse" id="linearGradient10006" x1="153" x2="153" xlink:href="#XMLID_57_" y1="119.5566" y2="116.4442"/>
    <linearGradient gradientTransform="translate(-143,-64)" gradientUnits="userSpaceOnUse" id="XMLID_56_" x1="154.1006" x2="151.9005" y1="127.1006" y2="124.9005">
      <stop id="stop195" offset="0" style="stop-color:#bbbbbb;stop-opacity:1"/>
      <stop id="stop197" offset="1" style="stop-color:#616161;stop-opacity:1"/>
    </linearGradient>
    <linearGradient gradientTransform="translate(-143,-64)" gradientUnits="userSpaceOnUse" id="linearGradient10004" x1="154.1006" x2="151.9005" xlink:href="#XMLID_56_" y1="127.1006" y2="124.9005"/>
    <linearGradient gradientTransform="translate(-143,-64)" gradientUnits="userSpaceOnUse" id="XMLID_55_" x1="153" x2="153" y1="127.5566" y2="124.4442">
      <stop id="stop188" offset="0" style="stop-color:#ffffff;stop-opacity:1"/>
      <stop id="stop190" offset="1" style="stop-color:#dddddd;stop-opacity:1"/>
    </linearGradient>
    <linearGradient gradientTransform="translate(-143,-64)" gradientUnits="userSpaceOnUse" id="linearGradient10002" x1="153" x2="153" xlink:href="#XMLID_55_" y1="127.5566" y2="124.4442"/>
    <linearGradient gradientTransform="translate(-143,-64)" gradientUnits="userSpaceOnUse" id="XMLID_54_" x1="154.1006" x2="151.9005" y1="135.1006" y2="132.9005">
      <stop id="stop179" offset="0" style="stop-color:#bbbbbb;stop-opacity:1"/>
      <stop id="stop181" offset="1" style="stop-color:#616161;stop-opacity:1"/>
    </linearGradient>
    <linearGradient gradientTransform="translate(-143,-64)" gradientUnits="userSpaceOnUse" id="linearGradient10000" x1="154.1006" x2="151.9005" xlink:href="#XMLID_54_" y1="135.1006" y2="132.9005"/>
    <linearGradient gradientTransform="translate(-143,-64)" gradientUnits="userSpaceOnUse" id="XMLID_53_" x1="153" x2="153" y1="135.55659" y2="132.4442">
      <stop id="stop172" offset="0" style="stop-color:#ffffff;stop-opacity:1"/>
      <stop id="stop174" offset="1" style="stop-color:#dddddd;stop-opacity:1"/>
    </linearGradient>
    <linearGradient gradientTransform="translate(-143,-64)" gradientUnits="userSpaceOnUse" id="linearGradient9998" x1="153" x2="153" xlink:href="#XMLID_53_" y1="135.55659" y2="132.4442"/>
    <linearGradient gradientTransform="translate(-143,-64)" gradientUnits="userSpaceOnUse" id="XMLID_52_" x1="154.1006" x2="151.9005" y1="143.1006" y2="140.9005">
      <stop id="stop163" offset="0" style="stop-color:#bbbbbb;stop-opacity:1"/>
      <stop id="stop165" offset="1" style="stop-color:#616161;stop-opacity:1"/>
    </linearGradient>
    <linearGradient gradientTransform="translate(-143,-64)" gradientUnits="userSpaceOnUse" id="linearGradient9996" x1="154.1006" x2="151.9005" xlink:href="#XMLID_52_" y1="143.1006" y2="140.9005"/>
    <linearGradient gradientTransform="translate(-143,-64)" gradientUnits="userSpaceOnUse" id="XMLID_51_" x1="153" x2="153" y1="143.55659" y2="140.4442">
      <stop id="stop156" offset="0" style="stop-color:#ffffff;stop-opacity:1"/>
      <stop id="stop158" offset="1" style="stop-color:#dddddd;stop-opacity:1"/>
    </linearGradient>
    <linearGradient gradientTransform="translate(-143,-64)" gradientUnits="userSpaceOnUse" id="linearGradient9994" x1="153" x2="153" xlink:href="#XMLID_51_" y1="143.55659" y2="140.4442"/>
    <linearGradient gradientTransform="translate(-143,-64)" gradientUnits="userSpaceOnUse" id="XMLID_50_" x1="154.1006" x2="151.9005" y1="151.1006" y2="148.9005">
      <stop id="stop147" offset="0" style="stop-color:#bbbbbb;stop-opacity:1"/>
      <stop id="stop149" offset="1" style="stop-color:#616161;stop-opacity:1"/>
    </linearGradient>
    <linearGradient gradientTransform="translate(-143,-64)" gradientUnits="userSpaceOnUse" id="linearGradient9992" x1="154.1006" x2="151.9005" xlink:href="#XMLID_50_" y1="151.1006" y2="148.9005"/>
    <linearGradient gradientTransform="translate(-143,-64)" gradientUnits="userSpaceOnUse" id="XMLID_49_" x1="153" x2="153" y1="151.55659" y2="148.4442">
      <stop id="stop140" offset="0" style="stop-color:#ffffff;stop-opacity:1"/>
      <stop id="stop142" offset="1" style="stop-color:#dddddd;stop-opacity:1"/>
    </linearGradient>
    <linearGradient gradientTransform="translate(-143,-64)" gradientUnits="userSpaceOnUse" id="linearGradient9990" x1="153" x2="153" xlink:href="#XMLID_49_" y1="151.55659" y2="148.4442"/>
    <linearGradient gradientTransform="translate(-143,-64)" gradientUnits="userSpaceOnUse" id="XMLID_48_" x1="154.1006" x2="151.9005" y1="159.1006" y2="156.9005">
      <stop id="stop131" offset="0" style="stop-color:#bbbbbb;stop-opacity:1"/>
      <stop id="stop133" offset="1" style="stop-color:#616161;stop-opacity:1"/>
    </linearGradient>
    <linearGradient gradientTransform="translate(-143,-64)" gradientUnits="userSpaceOnUse" id="linearGradient9988" x1="154.1006" x2="151.9005" xlink:href="#XMLID_48_" y1="159.1006" y2="156.9005"/>
    <linearGradient gradientTransform="translate(-143,-64)" gradientUnits="userSpaceOnUse" id="XMLID_47_" x1="153" x2="153" y1="159.55659" y2="156.4442">
      <stop id="stop124" offset="0" style="stop-color:#ffffff;stop-opacity:1"/>
      <stop id="stop126" offset="1" style="stop-color:#dddddd;stop-opacity:1"/>
    </linearGradient>
    <linearGradient gradientTransform="translate(-143,-64)" gradientUnits="userSpaceOnUse" id="linearGradient9986" x1="153" x2="153" xlink:href="#XMLID_47_" y1="159.55659" y2="156.4442"/>
    <linearGradient gradientTransform="translate(-143,-64)" gradientUnits="userSpaceOnUse" id="XMLID_46_" x1="154.1006" x2="151.9005" y1="167.1006" y2="164.9005">
      <stop id="stop115" offset="0" style="stop-color:#bbbbbb;stop-opacity:1"/>
      <stop id="stop117" offset="1" style="stop-color:#616161;stop-opacity:1"/>
    </linearGradient>
    <linearGradient gradientTransform="translate(-143,-64)" gradientUnits="userSpaceOnUse" id="linearGradient9984" x1="154.1006" x2="151.9005" xlink:href="#XMLID_46_" y1="167.1006" y2="164.9005"/>
    <linearGradient gradientTransform="translate(-143,-64)" gradientUnits="userSpaceOnUse" id="XMLID_45_" x1="153" x2="153" y1="167.55659" y2="164.4442">
      <stop id="stop108" offset="0" style="stop-color:#ffffff;stop-opacity:1"/>
      <stop id="stop110" offset="1" style="stop-color:#dddddd;stop-opacity:1"/>
    </linearGradient>
    <linearGradient gradientTransform="translate(-143,-64)" gradientUnits="userSpaceOnUse" id="linearGradient9982" x1="153" x2="153" xlink:href="#XMLID_45_" y1="167.55659" y2="164.4442"/>
    <linearGradient gradientTransform="translate(-143,-64)" gradientUnits="userSpaceOnUse" id="XMLID_44_" x1="154.1006" x2="151.9005" y1="175.1006" y2="172.9005">
      <stop id="stop9739" offset="0" style="stop-color:#bbbbbb;stop-opacity:1"/>
      <stop id="stop101" offset="1" style="stop-color:#616161;stop-opacity:1"/>
    </linearGradient>
    <linearGradient gradientTransform="translate(-143,-64)" gradientUnits="userSpaceOnUse" id="linearGradient9980" x1="154.1006" x2="151.9005" xlink:href="#XMLID_44_" y1="175.1006" y2="172.9005"/>
    <linearGradient gradientTransform="translate(-143,-64)" gradientUnits="userSpaceOnUse" id="XMLID_43_" x1="153" x2="153" y1="175.55659" y2="172.4442">
      <stop id="stop92" offset="0" style="stop-color:#ffffff;stop-opacity:1"/>
      <stop id="stop94" offset="1" style="stop-color:#dddddd;stop-opacity:1"/>
    </linearGradient>
    <linearGradient gradientTransform="translate(-143,-64)" gradientUnits="userSpaceOnUse" id="linearGradient9978" x1="153" x2="153" xlink:href="#XMLID_43_" y1="175.55659" y2="172.4442"/>
    <linearGradient id="linearGradient3206">
      <stop id="stop2466" offset="0" style="stop-color:#000000;stop-opacity:1"/>
      <stop id="stop2468" offset="1" style="stop-color:#000000;stop-opacity:0"/>
    </linearGradient>
    <linearGradient id="linearGradient10207">
      <stop id="stop10209" offset="0" style="stop-color:#a2a2a2;stop-opacity:1"/>
      <stop id="stop10211" offset="1" style="stop-color:#ffffff;stop-opacity:1"/>
    </linearGradient>
    <radialGradient cx="102" cy="112.3047" gradientUnits="userSpaceOnUse" id="XMLID_8_" r="139.55859">
      <stop id="stop41" offset="0" style="stop-color:#b7b8b9;stop-opacity:1"/>
      <stop id="stop47" offset="0.18851049" style="stop-color:#ececec;stop-opacity:1"/>
      <stop id="stop49" offset="0.25718147" style="stop-color:#fafafa;stop-opacity:1"/>
      <stop id="stop51" offset="0.30111277" style="stop-color:#ffffff;stop-opacity:1"/>
      <stop id="stop53" offset="0.53130001" style="stop-color:#fafafa;stop-opacity:1"/>
      <stop id="stop55" offset="0.84490001" style="stop-color:#ebecec;stop-opacity:1"/>
      <stop id="stop57" offset="1" style="stop-color:#e1e2e3;stop-opacity:1"/>
    </radialGradient>
    <filter height="1.3839999" id="filter6697" width="1.3839999" x="-0.19200002" y="-0.19199999">
      <feGaussianBlur id="feGaussianBlur6699" inkscape:collect="always" stdDeviation="1.9447689"/>
    </filter>
    <clipPath id="clipPath7084">
      <path d="M 72,88 L 40,120 L 32,120 L 32,80 L 72,80 L 72,88 z " id="path7086" style="fill:#000000;fill-opacity:1;fill-rule:evenodd;stroke:none;stroke-width:1px;stroke-linecap:butt;stroke-linejoin:miter;stroke-opacity:1"/>
    </clipPath>
    <radialGradient cx="102" cy="112.3047" gradientTransform="matrix(1,0,0,0.9996653,2e-6,3.0160848e-3)" gradientUnits="userSpaceOnUse" id="radialGradient9437" r="139.55859" xlink:href="#XMLID_8_"/>
    <linearGradient gradientUnits="userSpaceOnUse" id="linearGradient10213" x1="98.617439" x2="91.228737" xlink:href="#linearGradient10207" y1="106.41443" y2="99.254974"/>
    <filter id="filter2770">
      <feGaussianBlur id="feGaussianBlur2772" inkscape:collect="always" stdDeviation="2.0786429"/>
    </filter>
    <linearGradient gradientTransform="matrix(12.055018,0,0,10.959107,-219.39985,-94.635467)" gradientUnits="userSpaceOnUse" id="linearGradient2510" x1="99.934952" x2="110.38672" xlink:href="#linearGradient3206" y1="62.782482" y2="62.643799"/>
    <linearGradient gradientTransform="matrix(10.419713,0,0,10.419713,-179.7824,-92.865909)" gradientUnits="userSpaceOnUse" id="linearGradient8420" x1="99.934952" x2="110.38672" xlink:href="#linearGradient3206" y1="62.782482" y2="62.643799"/>
    <linearGradient gradientTransform="matrix(10.419713,0,0,10.419713,-179.7824,-92.865909)" gradientUnits="userSpaceOnUse" id="linearGradient8422" x1="99.934952" x2="110.38672" xlink:href="#linearGradient3206" y1="62.782482" y2="62.643799"/>
    <linearGradient gradientTransform="matrix(10.419713,0,0,10.419713,-179.7824,-92.865909)" gradientUnits="userSpaceOnUse" id="linearGradient2574" x1="99.934952" x2="110.38672" xlink:href="#linearGradient3206" y1="62.782482" y2="62.643799"/>
    <linearGradient gradientTransform="matrix(12.055018,0,0,10.959107,-219.39985,-94.635467)" gradientUnits="userSpaceOnUse" id="linearGradient2577" x1="99.934952" x2="110.38672" xlink:href="#linearGradient3206" y1="62.782482" y2="62.643799"/>
    <linearGradient gradientTransform="matrix(10.419713,0,0,10.419713,-179.7824,-92.865909)" gradientUnits="userSpaceOnUse" id="linearGradient2580" x1="99.934952" x2="110.38672" xlink:href="#linearGradient3206" y1="62.782482" y2="62.643799"/>
    <radialGradient cx="102" cy="112.3047" gradientTransform="matrix(1,0,0,0.9996653,2e-6,3.0160848e-3)" gradientUnits="userSpaceOnUse" id="radialGradient2583" r="139.55859" xlink:href="#XMLID_8_"/>
    <linearGradient gradientTransform="matrix(10.419713,0,0,10.419713,-179.88428,-92.865909)" gradientUnits="userSpaceOnUse" id="linearGradient2595" x1="99.934952" x2="110.38672" xlink:href="#linearGradient3206" y1="62.782482" y2="62.643799"/>
    <linearGradient gradientTransform="matrix(10.419713,0,0,10.419713,-179.33883,-92.865909)" gradientUnits="userSpaceOnUse" id="linearGradient2597" x1="99.934952" x2="110.38672" xlink:href="#linearGradient3206" y1="62.782482" y2="62.643799"/>
  </defs>
  <path d="M 16,8 L 16,120 C 16,120 79.15625,120 79.15625,120 L 79.1875,120 C 79.187503,120 91.09375,110.09375 96.59375,104.59375 C 102.09375,99.09375 112,87.1875 112,87.1875 L 112,87.15625 L 112,8 L 16,8 z " id="path7865" style="opacity:0.5;fill:#000000;fill-opacity:1;filter:url(#filter2770)" transform="matrix(1.0416667,0,0,1.0267857,-2.6666667,-1.2142891)"/>
  <path d="M 16.000001,8 L 16,120 C 16,120 79.146418,120 79.146418,120 L 112,87.14642 L 112,8 L 16.000001,8 z " id="path34" style="fill:#ffffff;fill-opacity:1"/>
  <path d="M 18.000002,9.0000034 C 17.449002,9.0000034 17.000002,9.4488534 17.000002,9.9996684 L 17.000002,117.96352 C 17.000002,118.51533 17.449002,118.96318 18.000002,118.96318 L 77.171999,118.96318 C 77.434999,118.96318 79.934679,119.08131 80.12068,118.89438 L 110.707,88.094202 C 110.894,87.907264 111,85.40942 111,85.146508 L 111,9.9996684 C 111,9.4488534 110.552,9.0000034 110,9.0000034 L 18.000002,9.0000034 z " id="path59" style="fill:url(#radialGradient2583);fill-opacity:1"/>
  <path d="M 42.341693,70.884012 C 42.341675,72.733542 42.075217,74.520375 41.54232,76.244514 C 41.040735,77.999995 40.210015,79.614413 39.050157,81.087774 C 37.921616,82.561119 36.448264,83.893406 34.630094,85.084639 C 32.811903,86.275849 30.601874,87.247635 28,88 L 28,84.37931 C 30.852658,83.470209 32.937295,82.357357 34.253918,81.040752 C 35.601869,79.724131 36.27585,78.203756 36.275862,76.479624 C 36.27585,75.915357 36.11911,75.429465 35.805642,75.021943 C 35.492152,74.645766 35.100302,74.300939 34.630094,73.987461 C 34.159865,73.705328 33.642624,73.423197 33.07837,73.141066 C 32.545446,72.858934 32.043879,72.529781 31.573667,72.153605 C 31.103441,71.746083 30.711592,71.26019 30.398119,70.695924 C 30.084633,70.100316 29.927894,69.36364 29.927899,68.485893 C 29.927894,66.793109 30.460809,65.507844 31.526646,64.630094 C 32.592468,63.721012 33.956103,63.266467 35.617555,63.266457 C 36.495285,63.266467 37.34168,63.438881 38.15674,63.783699 C 38.971772,64.097187 39.6771,64.58308 40.272727,65.241379 C 40.89967,65.868345 41.401237,66.667718 41.777429,67.639498 C 42.153587,68.579942 42.341675,69.661445 42.341693,70.884012" id="path2499" style="font-size:96.30094147px;font-style:normal;font-variant:normal;font-weight:normal;font-stretch:normal;text-align:center;line-height:100%;writing-mode:lr-tb;text-anchor:middle;opacity:0.5;fill:url(#linearGradient2595);fill-opacity:1;stroke:none;stroke-width:1px;stroke-linecap:butt;stroke-linejoin:miter;stroke-opacity:1;font-family:Liberation Serif"/>
  <path d="M 69.367296,32.487264 C 66.429581,32.487311 63.69896,32.683382 61.160231,33.046015 C 58.657736,33.375769 56.21442,33.767709 53.857026,34.229252 L 53.857026,44.352506 L 56.894002,44.352506 L 58.774035,38.56779 C 60.115928,37.875446 61.660823,37.320199 63.437962,36.891537 C 65.215064,36.462961 66.975638,36.234228 68.716516,36.234182 C 70.239738,36.234227 71.497211,36.462855 72.512737,36.924404 C 73.528205,37.386037 74.318613,38.039373 74.898931,38.863599 C 75.515453,39.687907 75.98274,40.667756 76.236648,41.821693 C 76.490491,42.942735 76.598156,44.216743 76.598193,45.601479 L 76.598193,52.865242 L 68.933443,53.062449 C 67.192565,53.095447 65.431877,53.160666 63.691043,53.292523 C 61.986438,53.424432 60.369689,53.685827 58.810189,54.04848 C 57.286927,54.411184 55.849704,54.933872 54.507806,55.593262 C 53.202156,56.21973 52.052355,57.036269 51.073131,58.05834 C 50.093894,59.080454 49.339412,60.354359 48.795399,61.870994 C 48.251378,63.354694 47.999995,65.118527 48,67.162695 C 47.999997,69.14095 48.215562,70.969996 48.650781,72.68447 C 49.08599,74.365983 49.804543,75.835856 50.820049,77.088743 C 51.835541,78.308662 53.16487,79.288714 54.833197,79.981101 C 56.537771,80.673485 58.621696,81 61.087921,81 C 63.191434,80.999999 65.095718,80.804031 66.800329,80.408381 C 68.541159,80.012732 70.086277,79.522701 71.391948,78.962202 C 72.69756,78.36873 73.775276,77.748157 74.682005,77.088743 C 75.624936,76.429331 76.379536,75.874184 76.923583,75.379622 L 77.972062,80.013969 L 92,80.013969 L 92,77.778965 L 85.636811,76.562859 L 85.636811,45.141331 C 85.636771,42.668563 85.205523,40.643541 84.371405,39.027938 C 83.573473,37.379443 82.45971,36.072877 81.009039,35.11668 C 79.55829,34.160575 77.833644,33.474578 75.838948,33.078882 C 73.84419,32.68328 71.68841,32.48731 69.367296,32.487264 z M 76.598193,56.316352 L 76.598193,72.848809 C 74.78477,73.640113 72.988379,74.293342 71.17502,74.820871 C 69.397872,75.315437 67.278022,75.576829 64.811832,75.576828 C 59.625519,75.576834 57.002453,72.669742 57.002465,66.866886 C 57.002453,64.822715 57.253948,63.124108 57.761709,61.805259 C 58.269444,60.486449 59.060083,59.441172 60.075595,58.682827 C 61.091077,57.924521 62.348436,57.401937 63.90797,57.105177 C 65.467465,56.775493 67.335932,56.579522 69.47576,56.513558 L 76.598193,56.316352 z " id="path2497" style="font-size:96.30094147px;font-style:normal;font-variant:normal;font-weight:normal;font-stretch:normal;text-align:center;line-height:100%;writing-mode:lr-tb;text-anchor:middle;opacity:0.5;fill:url(#linearGradient2577);fill-opacity:1;stroke:none;stroke-width:1px;stroke-linecap:butt;stroke-linejoin:miter;stroke-opacity:1;font-family:Liberation Serif"/>
  <path d="M 108.34169,70.884012 C 108.34167,72.733542 108.07522,74.520375 107.54232,76.244514 C 107.04073,77.999995 106.21001,79.614413 105.05015,81.087774 C 103.92161,82.561119 102.44826,83.893406 100.63009,85.084639 C 98.811904,86.275849 96.601874,87.247635 94,88 L 94,84.37931 C 96.852658,83.470209 98.937295,82.357357 100.25392,81.040752 C 101.60187,79.724131 102.27585,78.203756 102.27586,76.479624 C 102.27585,75.915357 102.11911,75.429465 101.80564,75.021943 C 101.49215,74.645766 101.1003,74.300939 100.63009,73.987461 C 100.15986,73.705328 99.642622,73.423197 99.07837,73.141066 C 98.545446,72.858934 98.043879,72.529781 97.573668,72.153605 C 97.103441,71.746083 96.711592,71.26019 96.398119,70.695924 C 96.084634,70.100316 95.927894,69.36364 95.927899,68.485893 C 95.927894,66.793109 96.460809,65.507844 97.526646,64.630094 C 98.592468,63.721012 99.956102,63.266467 101.61755,63.266457 C 102.49528,63.266467 103.34168,63.438881 104.15674,63.783699 C 104.97177,64.097187 105.6771,64.58308 106.27273,65.241379 C 106.89967,65.868345 107.40123,66.667718 107.77743,67.639498 C 108.15359,68.579942 108.34167,69.661445 108.34169,70.884012" id="text2489" style="font-size:96.30094147px;font-style:normal;font-variant:normal;font-weight:normal;font-stretch:normal;text-align:center;line-height:100%;writing-mode:lr-tb;text-anchor:middle;opacity:0.5;fill:url(#linearGradient2597);fill-opacity:1;stroke:none;stroke-width:1px;stroke-linecap:butt;stroke-linejoin:miter;stroke-opacity:1;font-family:Liberation Serif"/>
  <g id="g2499">
    <path clip-path="url(#clipPath7084)" d="M 41.879531,115.98249 C 41.879531,115.98249 66.18914,91.672876 66.18914,91.672876 C 66.18914,91.672876 56.836,94.586 46.586,94.586 C 46.586,104.836 41.879531,115.98249 41.879531,115.98249 z " id="path5540" style="opacity:0.4;fill:#000000;fill-opacity:1;filter:url(#filter6697)" transform="translate(40,0)"/>
    <path d="M 79.172,120 C 79.172,120 91.086,110.086 96.586,104.586 C 102.086,99.086 112,87.172 112,87.172 C 112,87.172 98.25,96 88,96 C 88,106.25 79.172,120 79.172,120 z " id="path14523" style="fill:url(#linearGradient10213);fill-opacity:1"/>
  </g>
  <g id="g281" transform="translate(12,4)">
    <linearGradient gradientTransform="translate(-143,-64)" gradientUnits="userSpaceOnUse" id="linearGradient6048" x1="153" x2="153" y1="79.556602" y2="76.444199">
      <stop id="stop6050" offset="0" style="stop-color:#ffffff;stop-opacity:1"/>
      <stop id="stop6052" offset="1" style="stop-color:#dddddd;stop-opacity:1"/>
    </linearGradient>
    <circle cx="10" cy="14" id="circle288" r="2" style="fill:url(#linearGradient10026)"/>
    <linearGradient gradientTransform="translate(-143,-64)" gradientUnits="userSpaceOnUse" id="linearGradient6055" x1="154.1006" x2="151.9005" y1="79.100601" y2="76.900497">
      <stop id="stop6057" offset="0" style="stop-color:#bbbbbb;stop-opacity:1"/>
      <stop id="stop6059" offset="1" style="stop-color:#616161;stop-opacity:1"/>
    </linearGradient>
    <circle cx="10" cy="14" id="circle295" r="1.556" style="fill:url(#linearGradient10028)"/>
  </g>
  <use height="128" id="use2548" transform="translate(0,8)" width="128" x="0" xlink:href="#g281" y="0"/>
  <use height="128" id="use2582" transform="translate(0,16)" width="128" x="0" xlink:href="#g281" y="0"/>
  <use height="128" id="use2584" transform="translate(0,24)" width="128" x="0" xlink:href="#g281" y="0"/>
  <use height="128" id="use2586" transform="translate(0,80)" width="128" x="0" xlink:href="#g281" y="0"/>
  <use height="128" id="use2588" transform="translate(0,-8)" width="128" x="0" xlink:href="#use2586" y="0"/>
  <use height="128" id="use2590" transform="translate(0,-8)" width="128" x="0" xlink:href="#use2588" y="0"/>
  <use height="128" id="use2592" transform="translate(0,-8)" width="128" x="0" xlink:href="#use2590" y="0"/>
  <use height="128" id="use2594" transform="translate(0,-8)" width="128" x="0" xlink:href="#use2592" y="0"/>
  <use height="128" id="use2596" transform="translate(0,-8)" width="128" x="0" xlink:href="#use2594" y="0"/>
  <use height="128" id="use2598" transform="translate(0,-8)" width="128" x="0" xlink:href="#use2596" y="0"/>
  <use height="128" id="use2701" transform="translate(0,88)" width="128" x="0" xlink:href="#g281" y="0"/>
  <use height="128" id="use2703" transform="translate(0,96)" width="128" x="0" xlink:href="#g281" y="0"/>
</svg>
